digraph "rook"
{
  edge [fontname="Helvetica",fontsize="10",labelfontname="Helvetica",labelfontsize="10"];
  node [fontname="Helvetica",fontsize="10",shape=record];
  rankdir="LR";
  Node34 [label="rook",height=0.2,width=0.4,color="black", fillcolor="grey75", style="filled", fontcolor="black"];
  Node34 -> Node35 [dir="back",color="midnightblue",fontsize="10",style="solid",fontname="Helvetica"];
  Node35 [label="CBoard::reset",height=0.2,width=0.4,color="black", fillcolor="white", style="filled",URL="$classCBoard.html#afbd4e2cf8f9920321eaaefc8664f944f"];
  Node35 -> Node36 [dir="back",color="midnightblue",fontsize="10",style="solid",fontname="Helvetica"];
  Node36 [label="CGame::startNew",height=0.2,width=0.4,color="black", fillcolor="white", style="filled",URL="$classCGame.html#ae5b9689d49e262609ec20d2ff4881378"];
  Node34 -> Node37 [dir="back",color="midnightblue",fontsize="10",style="solid",fontname="Helvetica"];
  Node37 [label="CBoard::load",height=0.2,width=0.4,color="black", fillcolor="white", style="filled",URL="$classCBoard.html#a6cd4f692207bdb3efe591290da088f93"];
  Node37 -> Node38 [dir="back",color="midnightblue",fontsize="10",style="solid",fontname="Helvetica"];
  Node38 [label="CGame::load",height=0.2,width=0.4,color="black", fillcolor="white", style="filled",URL="$classCGame.html#a83f1a3a7fd1eb188bcae304fed313e91"];
  Node34 -> Node39 [dir="back",color="midnightblue",fontsize="10",style="solid",fontname="Helvetica"];
  Node39 [label="CBoard::tryPromotion",height=0.2,width=0.4,color="black", fillcolor="white", style="filled",URL="$classCBoard.html#a26905798611c3d4c59d26e55c3b1de56"];
}
