digraph "queen"
{
  edge [fontname="Helvetica",fontsize="10",labelfontname="Helvetica",labelfontsize="10"];
  node [fontname="Helvetica",fontsize="10",shape=record];
  rankdir="LR";
  Node27 [label="queen",height=0.2,width=0.4,color="black", fillcolor="grey75", style="filled", fontcolor="black"];
  Node27 -> Node28 [dir="back",color="midnightblue",fontsize="10",style="solid",fontname="Helvetica"];
  Node28 [label="CBoard::reset",height=0.2,width=0.4,color="black", fillcolor="white", style="filled",URL="$classCBoard.html#afbd4e2cf8f9920321eaaefc8664f944f"];
  Node28 -> Node29 [dir="back",color="midnightblue",fontsize="10",style="solid",fontname="Helvetica"];
  Node29 [label="CGame::startNew",height=0.2,width=0.4,color="black", fillcolor="white", style="filled",URL="$classCGame.html#ae5b9689d49e262609ec20d2ff4881378"];
  Node27 -> Node30 [dir="back",color="midnightblue",fontsize="10",style="solid",fontname="Helvetica"];
  Node30 [label="CBoard::load",height=0.2,width=0.4,color="black", fillcolor="white", style="filled",URL="$classCBoard.html#a6cd4f692207bdb3efe591290da088f93"];
  Node30 -> Node31 [dir="back",color="midnightblue",fontsize="10",style="solid",fontname="Helvetica"];
  Node31 [label="CGame::load",height=0.2,width=0.4,color="black", fillcolor="white", style="filled",URL="$classCGame.html#a83f1a3a7fd1eb188bcae304fed313e91"];
  Node27 -> Node32 [dir="back",color="midnightblue",fontsize="10",style="solid",fontname="Helvetica"];
  Node32 [label="CBoard::tryPromotion",height=0.2,width=0.4,color="black", fillcolor="white", style="filled",URL="$classCBoard.html#a26905798611c3d4c59d26e55c3b1de56"];
}
