digraph "pawn"
{
  edge [fontname="Helvetica",fontsize="10",labelfontname="Helvetica",labelfontsize="10"];
  node [fontname="Helvetica",fontsize="10",shape=record];
  rankdir="LR";
  Node23 [label="pawn",height=0.2,width=0.4,color="black", fillcolor="grey75", style="filled", fontcolor="black"];
  Node23 -> Node24 [dir="back",color="midnightblue",fontsize="10",style="solid",fontname="Helvetica"];
  Node24 [label="CBoard::reset",height=0.2,width=0.4,color="black", fillcolor="white", style="filled",URL="$classCBoard.html#afbd4e2cf8f9920321eaaefc8664f944f"];
  Node24 -> Node25 [dir="back",color="midnightblue",fontsize="10",style="solid",fontname="Helvetica"];
  Node25 [label="CGame::startNew",height=0.2,width=0.4,color="black", fillcolor="white", style="filled",URL="$classCGame.html#ae5b9689d49e262609ec20d2ff4881378"];
  Node23 -> Node26 [dir="back",color="midnightblue",fontsize="10",style="solid",fontname="Helvetica"];
  Node26 [label="CBoard::load",height=0.2,width=0.4,color="black", fillcolor="white", style="filled",URL="$classCBoard.html#a6cd4f692207bdb3efe591290da088f93"];
  Node26 -> Node27 [dir="back",color="midnightblue",fontsize="10",style="solid",fontname="Helvetica"];
  Node27 [label="CGame::load",height=0.2,width=0.4,color="black", fillcolor="white", style="filled",URL="$classCGame.html#a83f1a3a7fd1eb188bcae304fed313e91"];
}
