digraph "CBoard"
{
  edge [fontname="Helvetica",fontsize="10",labelfontname="Helvetica",labelfontsize="10"];
  node [fontname="Helvetica",fontsize="10",shape=record];
  Node1 [label="{CBoard\n|- m_Fields\l|+ CBoard()\l+ reset()\l+ getFields()\l+ print()\l+ save()\l+ load()\l+ validateMove()\l+ undoMove()\l+ testCheck()\l+ testEnd()\l- tryCastling()\l- tryPromotion()\l- tryEnPassant()\l- testCheck()\l- testPath()\l- testCheckmate()\l- testStalemate()\l- setPawnsMoved()\l}",height=0.2,width=0.4,color="black", fillcolor="grey75", style="filled", fontcolor="black"];
}
