digraph "CArtificial::calculateMoveMedium"
{
  edge [fontname="Helvetica",fontsize="10",labelfontname="Helvetica",labelfontsize="10"];
  node [fontname="Helvetica",fontsize="10",shape=record];
  rankdir="LR";
  Node25 [label="CArtificial::calculateMove\lMedium",height=0.2,width=0.4,color="black", fillcolor="grey75", style="filled", fontcolor="black"];
  Node25 -> Node26 [dir="back",color="midnightblue",fontsize="10",style="solid",fontname="Helvetica"];
  Node26 [label="CArtificial::requestMove",height=0.2,width=0.4,color="black", fillcolor="white", style="filled",URL="$classCArtificial.html#ac088380b0ec288a4b76e5713faa9bdad"];
}
