digraph "CBoard::testCheckmate"
{
  edge [fontname="Helvetica",fontsize="10",labelfontname="Helvetica",labelfontsize="10"];
  node [fontname="Helvetica",fontsize="10",shape=record];
  rankdir="LR";
  Node42 [label="CBoard::testCheckmate",height=0.2,width=0.4,color="black", fillcolor="grey75", style="filled", fontcolor="black"];
  Node42 -> Node43 [color="midnightblue",fontsize="10",style="solid",fontname="Helvetica"];
  Node43 [label="CChessman::getPath",height=0.2,width=0.4,color="black", fillcolor="white", style="filled",URL="$classCChessman.html#a9aa5f59cd5de7d70972b404bc2080dc8"];
}
