digraph "CBoard::load"
{
  edge [fontname="Helvetica",fontsize="10",labelfontname="Helvetica",labelfontsize="10"];
  node [fontname="Helvetica",fontsize="10",shape=record];
  rankdir="LR";
  Node16 [label="CBoard::load",height=0.2,width=0.4,color="black", fillcolor="grey75", style="filled", fontcolor="black"];
  Node16 -> Node17 [dir="back",color="midnightblue",fontsize="10",style="solid",fontname="Helvetica"];
  Node17 [label="CGame::load",height=0.2,width=0.4,color="black", fillcolor="white", style="filled",URL="$classCGame.html#a83f1a3a7fd1eb188bcae304fed313e91"];
}
