digraph "CBoard::undoMove"
{
  edge [fontname="Helvetica",fontsize="10",labelfontname="Helvetica",labelfontsize="10"];
  node [fontname="Helvetica",fontsize="10",shape=record];
  rankdir="LR";
  Node68 [label="CBoard::undoMove",height=0.2,width=0.4,color="black", fillcolor="grey75", style="filled", fontcolor="black"];
  Node68 -> Node69 [dir="back",color="midnightblue",fontsize="10",style="solid",fontname="Helvetica"];
  Node69 [label="CArtificial::calculateMoveEasy",height=0.2,width=0.4,color="black", fillcolor="white", style="filled",URL="$classCArtificial.html#a71161879987e772fad952496567fd544"];
  Node69 -> Node70 [dir="back",color="midnightblue",fontsize="10",style="solid",fontname="Helvetica"];
  Node70 [label="CArtificial::requestMove",height=0.2,width=0.4,color="black", fillcolor="white", style="filled",URL="$classCArtificial.html#ac088380b0ec288a4b76e5713faa9bdad"];
  Node68 -> Node71 [dir="back",color="midnightblue",fontsize="10",style="solid",fontname="Helvetica"];
  Node71 [label="CArtificial::calculateMove\lMedium",height=0.2,width=0.4,color="black", fillcolor="white", style="filled",URL="$classCArtificial.html#a60e31e3d4edf7cf95620671658221b2d"];
  Node71 -> Node70 [dir="back",color="midnightblue",fontsize="10",style="solid",fontname="Helvetica"];
  Node68 -> Node72 [dir="back",color="midnightblue",fontsize="10",style="solid",fontname="Helvetica"];
  Node72 [label="CArtificial::calculateMoveHard",height=0.2,width=0.4,color="black", fillcolor="white", style="filled",URL="$classCArtificial.html#ae04a9608cab4c157881dc3e5b0b4eeff"];
  Node72 -> Node70 [dir="back",color="midnightblue",fontsize="10",style="solid",fontname="Helvetica"];
  Node68 -> Node73 [dir="back",color="midnightblue",fontsize="10",style="solid",fontname="Helvetica"];
  Node73 [label="CArtificial::negamax",height=0.2,width=0.4,color="black", fillcolor="white", style="filled",URL="$classCArtificial.html#a8430e5a147d07926e540f1a4ffa9c47e"];
  Node73 -> Node72 [dir="back",color="midnightblue",fontsize="10",style="solid",fontname="Helvetica"];
}
