digraph "CGame::isRunning"
{
  edge [fontname="Helvetica",fontsize="10",labelfontname="Helvetica",labelfontsize="10"];
  node [fontname="Helvetica",fontsize="10",shape=record];
  rankdir="LR";
  Node26 [label="CGame::isRunning",height=0.2,width=0.4,color="black", fillcolor="grey75", style="filled", fontcolor="black"];
  Node26 -> Node27 [dir="back",color="midnightblue",fontsize="10",style="solid",fontname="Helvetica"];
  Node27 [label="CInterface::promptCommand",height=0.2,width=0.4,color="black", fillcolor="white", style="filled",URL="$classCInterface.html#a1baf3a630445f5286e96be376fa340f3"];
  Node27 -> Node28 [dir="back",color="midnightblue",fontsize="10",style="solid",fontname="Helvetica"];
  Node28 [label="CApplication::Run",height=0.2,width=0.4,color="black", fillcolor="white", style="filled",URL="$classCApplication.html#aa5bea3ca596636a50a27101fb3a4da0b"];
}
