digraph "newCommand"
{
  edge [fontname="Helvetica",fontsize="10",labelfontname="Helvetica",labelfontsize="10"];
  node [fontname="Helvetica",fontsize="10",shape=record];
  rankdir="LR";
  Node9 [label="newCommand",height=0.2,width=0.4,color="black", fillcolor="grey75", style="filled", fontcolor="black"];
  Node9 -> Node10 [dir="back",color="midnightblue",fontsize="10",style="solid",fontname="Helvetica"];
  Node10 [label="CApplication::CApplication",height=0.2,width=0.4,color="black", fillcolor="white", style="filled",URL="$classCApplication.html#a33f94c851b444e76b351d541d307087a"];
}
