digraph "CApplication::CApplication"
{
  edge [fontname="Helvetica",fontsize="10",labelfontname="Helvetica",labelfontsize="10"];
  node [fontname="Helvetica",fontsize="10",shape=record];
  rankdir="LR";
  Node0 [label="CApplication::CApplication",height=0.2,width=0.4,color="black", fillcolor="grey75", style="filled", fontcolor="black"];
  Node0 -> Node1 [color="midnightblue",fontsize="10",style="solid",fontname="Helvetica"];
  Node1 [label="newCommand",height=0.2,width=0.4,color="black", fillcolor="white", style="filled",URL="$commands_8cpp.html#a6dee5095050a1f1c0d426939d97cfe22"];
  Node0 -> Node2 [color="midnightblue",fontsize="10",style="solid",fontname="Helvetica"];
  Node2 [label="loadCommand",height=0.2,width=0.4,color="black", fillcolor="white", style="filled",URL="$commands_8cpp.html#a450d8b0d458e4884d7c7a2cfeb0f0987"];
  Node0 -> Node3 [color="midnightblue",fontsize="10",style="solid",fontname="Helvetica"];
  Node3 [label="saveCommand",height=0.2,width=0.4,color="black", fillcolor="white", style="filled",URL="$commands_8cpp.html#af0b2d2d9de8a373ca88008b63501f024"];
  Node0 -> Node4 [color="midnightblue",fontsize="10",style="solid",fontname="Helvetica"];
  Node4 [label="moveCommand",height=0.2,width=0.4,color="black", fillcolor="white", style="filled",URL="$commands_8cpp.html#a030f5a18a0cca17ecc4bbae1dc74acd6"];
  Node0 -> Node5 [color="midnightblue",fontsize="10",style="solid",fontname="Helvetica"];
  Node5 [label="surrenderCommand",height=0.2,width=0.4,color="black", fillcolor="white", style="filled",URL="$commands_8cpp.html#a2dec3a76ed79a2421dd4bf7ec6523997"];
  Node0 -> Node6 [color="midnightblue",fontsize="10",style="solid",fontname="Helvetica"];
  Node6 [label="helpCommand",height=0.2,width=0.4,color="black", fillcolor="white", style="filled",URL="$commands_8cpp.html#a952df8500ac109a2267fe28b2781da7c"];
  Node0 -> Node7 [color="midnightblue",fontsize="10",style="solid",fontname="Helvetica"];
  Node7 [label="quitCommand",height=0.2,width=0.4,color="black", fillcolor="white", style="filled",URL="$commands_8cpp.html#a1140856e15d95b1263dc419710208bf9"];
  Node0 -> Node8 [color="midnightblue",fontsize="10",style="solid",fontname="Helvetica"];
  Node8 [label="CInterface::print",height=0.2,width=0.4,color="black", fillcolor="white", style="filled",URL="$classCInterface.html#a17deff3c8e3e59157f1cc9db2b03e40d"];
}
