digraph "CPlayer"
{
  edge [fontname="Helvetica",fontsize="10",labelfontname="Helvetica",labelfontsize="10"];
  node [fontname="Helvetica",fontsize="10",shape=record];
  Node0 [label="{CPlayer\n||+ CPlayer()\l+ CPlayer()\l+ operator=()\l+ ~CPlayer()\l+ save()\l+ endMessage()\l+ clone()\l+ requestMove()\l}",height=0.2,width=0.4,color="black", fillcolor="grey75", style="filled", fontcolor="black"];
  Node0 -> Node1 [dir="back",color="midnightblue",fontsize="10",style="solid",arrowtail="onormal",fontname="Helvetica"];
  Node1 [label="{CArtificial\n|- m_Difficulty\l- m_White\l- m_Example\l|+ CArtificial()\l+ save()\l+ endMessage()\l+ clone()\l+ requestMove()\l- calculateMoveEasy()\l- calculateMoveMedium()\l- calculateMoveHard()\l- negamax()\l}",height=0.2,width=0.4,color="black", fillcolor="white", style="filled",URL="$classCArtificial.html"];
  Node0 -> Node2 [dir="back",color="midnightblue",fontsize="10",style="solid",arrowtail="onormal",fontname="Helvetica"];
  Node2 [label="{CPerson\n||+ save()\l+ endMessage()\l+ clone()\l+ requestMove()\l}",height=0.2,width=0.4,color="black", fillcolor="white", style="filled",URL="$classCPerson.html"];
}
