digraph "CInterface::promptWithOptions"
{
  edge [fontname="Helvetica",fontsize="10",labelfontname="Helvetica",labelfontsize="10"];
  node [fontname="Helvetica",fontsize="10",shape=record];
  rankdir="LR";
  Node34 [label="CInterface::promptWithOptions",height=0.2,width=0.4,color="black", fillcolor="grey75", style="filled", fontcolor="black"];
  Node34 -> Node35 [color="midnightblue",fontsize="10",style="solid",fontname="Helvetica"];
  Node35 [label="CInterface::clearLine",height=0.2,width=0.4,color="black", fillcolor="white", style="filled",URL="$classCInterface.html#a863b195a458b03254703cff91ddf505b"];
}
