digraph "src/CStaticBoardEvaluator.h"
{
  edge [fontname="Helvetica",fontsize="10",labelfontname="Helvetica",labelfontsize="10"];
  node [fontname="Helvetica",fontsize="10",shape=record];
  Node11 [label="src/CStaticBoardEvaluator.h",height=0.2,width=0.4,color="black", fillcolor="grey75", style="filled", fontcolor="black"];
  Node11 -> Node12 [dir="back",color="midnightblue",fontsize="10",style="solid",fontname="Helvetica"];
  Node12 [label="src/CArtificial.h",height=0.2,width=0.4,color="black", fillcolor="white", style="filled",URL="$CArtificial_8h.html"];
  Node12 -> Node13 [dir="back",color="midnightblue",fontsize="10",style="solid",fontname="Helvetica"];
  Node13 [label="src/CGame.h",height=0.2,width=0.4,color="black", fillcolor="white", style="filled",URL="$CGame_8h.html"];
  Node13 -> Node14 [dir="back",color="midnightblue",fontsize="10",style="solid",fontname="Helvetica"];
  Node14 [label="src/CInterface.h",height=0.2,width=0.4,color="red", fillcolor="white", style="filled",URL="$CInterface_8h.html"];
  Node14 -> Node15 [dir="back",color="midnightblue",fontsize="10",style="solid",fontname="Helvetica"];
  Node15 [label="src/CApplication.h",height=0.2,width=0.4,color="red", fillcolor="white", style="filled",URL="$CApplication_8h.html"];
  Node14 -> Node18 [dir="back",color="midnightblue",fontsize="10",style="solid",fontname="Helvetica"];
  Node18 [label="src/CCommand.h",height=0.2,width=0.4,color="red", fillcolor="white", style="filled",URL="$CCommand_8h.html"];
  Node18 -> Node15 [dir="back",color="midnightblue",fontsize="10",style="solid",fontname="Helvetica"];
  Node18 -> Node19 [dir="back",color="midnightblue",fontsize="10",style="solid",fontname="Helvetica"];
  Node19 [label="src/commands.h",height=0.2,width=0.4,color="red", fillcolor="white", style="filled",URL="$commands_8h.html"];
  Node19 -> Node15 [dir="back",color="midnightblue",fontsize="10",style="solid",fontname="Helvetica"];
  Node13 -> Node18 [dir="back",color="midnightblue",fontsize="10",style="solid",fontname="Helvetica"];
  Node13 -> Node15 [dir="back",color="midnightblue",fontsize="10",style="solid",fontname="Helvetica"];
  Node13 -> Node19 [dir="back",color="midnightblue",fontsize="10",style="solid",fontname="Helvetica"];
  Node13 -> Node23 [dir="back",color="midnightblue",fontsize="10",style="solid",fontname="Helvetica"];
  Node23 [label="src/CGame.cpp",height=0.2,width=0.4,color="black", fillcolor="white", style="filled",URL="$CGame_8cpp.html"];
  Node12 -> Node18 [dir="back",color="midnightblue",fontsize="10",style="solid",fontname="Helvetica"];
  Node12 -> Node19 [dir="back",color="midnightblue",fontsize="10",style="solid",fontname="Helvetica"];
  Node12 -> Node24 [dir="back",color="midnightblue",fontsize="10",style="solid",fontname="Helvetica"];
  Node24 [label="src/CArtificial.cpp",height=0.2,width=0.4,color="black", fillcolor="white", style="filled",URL="$CArtificial_8cpp.html"];
  Node11 -> Node25 [dir="back",color="midnightblue",fontsize="10",style="solid",fontname="Helvetica"];
  Node25 [label="src/CStaticBoardEvaluator.cpp",height=0.2,width=0.4,color="black", fillcolor="white", style="filled",URL="$CStaticBoardEvaluator_8cpp.html"];
}
